Text Mining St. Croix Avis 1878
…
Extracting the months from the “timestamp” column

Currently the only column we have containing temporal information is
the column “timestamp”. Let’s examing this column:

croix %>% 
  select(timestamp)

## # A tibble: 2,831 × 1
##    timestamp          
##    <dttm>             
##  1 1878-01-02 01:00:00
##  2 1878-01-02 01:00:00
##  3 1878-01-02 01:00:00
##  4 1878-01-02 01:00:00
##  5 1878-01-02 01:00:00
##  6 1878-01-02 01:00:00
##  7 1878-01-02 01:00:00
##  8 1878-01-02 01:00:00
##  9 1878-01-02 01:00:00
## 10 1878-01-02 01:00:00
## # ℹ 2,821 more rows
…
croix %>% 
  unnest_tokens(word, fulltext_org) -> croix_tidy

Count words pr month

Since we now have the text from the articles on the one word pr.
row-format we can count the words to see, which words are used most
frequently. Since we have prepared our month column we do the count
within each month:

croix_tidy %>% 
  count(m, word, sort = TRUE)

## # A tibble: 170,341 × 3
##        m word      n
##    <dbl> <chr> <int>
##  1     1 the    4615
##  2    11 the    4187
##  3     9 the    4173
##  4     8 the    3934
##  5    10 the    3794
##  6     3 the    3743
##  7     6 the    3724
##  8     7 the    3688
##  9    12 the    3630
## 10     5 the    3548
## # ℹ 170,331 more rows
…
Then we add the total number of words to our dataframe, which we do
with left_join:

croix_tidy %>%
  count(m, word, sort = TRUE) %>% 
  left_join(total_words, by = "m") -> croix_counts

croix_counts

## # A tibble: 170,341 × 4
##        m word      n total
##    <dbl> <chr> <int> <int>
##  1     1 the    4615 69921
##  2    11 the    4187 72013
##  3     9 the    4173 61812
##  4     8 the    3934 64822
##  5    10 the    3794 65976
##  6     3 the    3743 73245
##  7     6 the    3724 65797
##  8     7 the    3688 64718
##  9    12 the    3630 59423
## 10     5 the    3548 65969
## # ℹ 170,331 more rows
…
Luckily, R can easily calculate tf and tf_idf for all the words by
using the bind_tf_idf function:

croix_counts %>% 
  bind_tf_idf(word, m, n) -> croix_tfidf

croix_tfidf

## # A tibble: 170,341 × 7
##        m word      n total     tf   idf tf_idf
##    <dbl> <chr> <int> <int>  <dbl> <dbl>  <dbl>
##  1     1 the    4615 69921 0.0660     0      0
##  2    11 the    4187 72013 0.0581     0      0
##  3     9 the    4173 61812 0.0675     0      0
##  4     8 the    3934 64822 0.0607     0      0
##  5    10 the    3794 65976 0.0575     0      0
##  6     3 the    3743 73245 0.0511     0      0
##  7     6 the    3724 65797 0.0566     0      0
##  8     7 the    3688 64718 0.0570     0      0
##  9    12 the    3630 59423 0.0611     0      0
## 10     5 the    3548 65969 0.0538     0      0
## # ℹ 170,331 more rows

Nonetheless we still do not see any interesting words. This is
because R lists all the words in an ascending order – lowest to highest.
Instead, we will ask it to list them in a descending order – highest to
lowest tf_idf:

croix_tfidf %>% 
  arrange(desc(tf_idf))

## # A tibble: 170,341 × 7
##        m word               n total       tf   idf   tf_idf
##    <dbl> <chr>          <int> <int>    <dbl> <dbl>    <dbl>
##  1    11 2.00              22 72013 0.000306 2.48  0.000759
##  2    11 1.00              30 72013 0.000417 1.79  0.000746
##  3     7 milne             15 64718 0.000232 2.48  0.000576
##  4     1 gage              16 69921 0.000229 2.48  0.000569
##  5    12 qualifications    12 59423 0.000202 2.48  0.000502
##  6     4 rollers           27 60931 0.000443 1.10  0.000487
##  7    12 carbon            26 59423 0.000438 1.10  0.000481
##  8     2 ordres            12 62475 0.000192 2.48  0.000477
##  9    11 rioters           19 72013 0.000264 1.79  0.000473
## 10    12 franchise         29 59423 0.000488 0.875 0.000427
## # ℹ 170,331 more rows
…
